Process GASMET data — process_gasmet • glimmr
…
wndw and offset can be set as function parameters for the whole dataset
    or individually in the metadata file for every measurement.

    Examples

# preprocessing of data (pre=TRUE) returns data frame with chunks ready to
  # pass to 'gasfluxes'.
process_gasmet(gasmet, meta_gasmet, pre=TRUE)
#> # A tibble: 59 x 12
#>    spot  day       rep      V     A    Time CO2mmol CH4mmol N2Ommol co2   ch4  
#>    <chr> <chr>   <dbl>  <dbl> <dbl>   <dbl>   <dbl>   <dbl>   <dbl> <chr> <chr>
#>  1 YT1   12.04.…     1 0.0146 0.098 0          16.6  0.0966  0.0119 co2   ch4  
#>  2 YT1   12.04.…     1 0.0146 0.098 0.00833    16.5  0.0970  0.0120 co2   ch4  
#>  3 YT1   12.04.…     1 0.0146 0.098 0.0167     16.6  0.0961  0.0119 co2   ch4  
#>  4 YT1   12.04.…     1 0.0146 0.098 0.025      16.6  0.0932  0.0121 co2   ch4  
#>  5 YT1   12.04.…     1 0.0146 0.098 0.0333     16.6  0.0932  0.0119 co2   ch4  
#>  6 YT1   12.04.…     1 0.0146 0.098 0.0417     16.4  0.0953  0.0105 co2   ch4  
#>  7 YT1   12.04.…     1 0.0146 0.098 0.05       16.4  0.0949  0.0108 co2   ch4  
#>  8 YT1   12.04.…     1 0.0146 0.098 0.0583     16.5  0.0941  0.0111 co2   ch4  
#>  9 YT1   12.04.…     1 0.0146 0.098 0.0667     16.4  0.0978  0.0112 co2   ch4  
#> 10 YT1   12.04.…     1 0.0146 0.098 0.075      16.5  0.0974  0.0117 co2   ch4  
#> # ... with 49 more rows, and 1 more variable: n2o <chr>
…
